Supplementary material of XXXXXXXXXXX
…
liste_summary_dist <- list()
liste_summary_dist <- mclapply(X = liste_sf_clusters, FUN = f_pair_dist_cluster)

stopCluster(clustersdo)

summary_dist_clusters <- rbindlist(l = liste_summary_dist) %>%
  as_tibble()

Output table:

# output tibble visualization
print(x = summary_dist_clusters, n = 20)

# A tibble: 179 × 4
   meandist median dist_choice cluster
      <dbl>  <dbl>       <dbl> <fct>  
 1   21062. 22426.       30000 1      
 2   25268. 20768.       30000 2      
 3   25169. 22308.       30000 3      
 4   14877. 14877.       30000 4      
 5   20088. 18913.       30000 5      
 6   17296. 17296.       30000 6      
 7   15969. 14492.       30000 7      
 8   12598. 12598.       30000 8      
 9   20497. 21092.       30000 9      
10   22389. 20457.       30000 10     
11   16756. 16756.       30000 11     
12   21093. 21613.       30000 12     
13   19434. 20873.       30000 13     
14   18431. 14102.       30000 14     
15   19705. 19612.       30000 15     
16     NaN     NA        30000 16     
17   19461. 20276.       30000 17     
18   20214. 20496.       30000 18     
19   21991. 21388.       30000 19     
20   14721. 14002.       30000 20     
# ℹ 159 more rows
…
